{
    "uid": "performance",
    "name": "Performance Theme",
    "description": "A theme for Performance's site",
    "version": "0.2.0",
    "pb_version": "0.7.x",
    "author": {
        "name": "Dev The Web",
        "email": "matt@devtheweb.com",
        "website": "http://www.devtheweb.com",
        "contributors": [
            {
                "name": "Matt Kim",
                "email": "matt@devtheweb.com"
            }
        ]
    },
    "settings": [
        {
            "name": "title",
            "value": ""
        },
        {
            "name": "email",
            "value": ""
        },
        {
            "name": "phone",
            "value": ""
        },
        {
            "name": "description",
            "value": ""
        },
        {
            "name": "image_url",
            "value": ""
        }
    ],
    "permissions": {
        "ACCESS_USER": [],
        "ACCESS_WRITER": [],
        "ACCESS_EDITOR": [],
        "ACCESS_MANAGING_EDITOR": []
    },
    "main_module": {
        "path": "performance.js"
    },
    "theme": {
        "settings": [],
        "content_templates": []
    }
}
