{
  "background_color": "#ffffff",
  "color": "#000000",
  "button_text_color": "#ffffff",
  "button_bg_color": "#223e5d",
  "link_color": "ffffff",
  "header_background_color": "#9cb0c6",
  "nav_text_color": "#ffffff",
  "nav_active_color": "",
  "navbar_background": "#223e5d",
  "font": "",
  "social_background_color": "#000",
  "social_font_color": "#fff",
  "title_color": "#ffffff",
  "link_color": "#0000ff",
  "link_hover_color": "#5656fe",
  "color_footer": "#000"
}
