{
  "background_color": "#f5f5f5",
  "color": "#333",
  "color_footer": "#333",
  "button_text_color": "#fff",
  "button_bg_color": "#a5a5a5",
  "link_color": "#a5a5a5",
  "header_background_color": "#f5f5f5",
  "nav_text_color": "#333",
  "nav_active_color": "#e0dfdf",
  "navbar_background": "#fff",
  "social_background_color": "#333",
  "social_font_color": "#fff",
  "title_color": "#222",
  "link_hover_color": "#5b5b99"
}
